Homework 5
…
Task 2

Summarize the Data (Very Basic EDA)

# look at how the combined data is stored
combined_data

# A tibble: 320 × 38
   school sex      age address famsize Pstatus  Medu  Fedu Mjob     Fjob  reason
   <chr>  <fct>  <dbl> <chr>   <chr>   <chr>   <dbl> <dbl> <chr>    <chr> <chr> 
 1 GP     Female    18 U       GT3     A           4     4 at_home  teac… course
 2 GP     Female    17 U       GT3     T           1     1 at_home  other course
 3 GP     Female    15 U       GT3     T           4     2 health   serv… home  
 4 GP     Female    16 U       GT3     T           3     3 other    other home  
 5 GP     Male      16 U       LE3     T           4     3 services other reput…
 6 GP     Male      16 U       LE3     T           2     2 other    other home  
 7 GP     Female    17 U       GT3     A           4     4 other    teac… home  
 8 GP     Male      15 U       LE3     A           3     2 services other home  
 9 GP     Male      15 U       GT3     T           3     4 other    other home  
10 GP     Female    15 U       GT3     T           4     4 teacher  heal… reput…
# ℹ 310 more rows
# ℹ 27 more variables: guardian <chr>, traveltime <dbl>, studytime <fct>,
#   failures <dbl>, schoolsup <chr>, famsup <chr>, paid.x <chr>,
#   activities <chr>, nursery <chr>, higher <chr>, internet <chr>,
#   romantic <fct>, famrel <dbl>, freetime <dbl>, goout <fct>, Dalc <dbl>,
#   Walc <dbl>, health <dbl>, absences.x <dbl>, G1.x <dbl>, G2.x <dbl>,
#   G3.x <dbl>, paid.y <chr>, absences.y <dbl>, G1.y <dbl>, G2.y <dbl>, …
…
